{
  "type": "service_account",
  "project_id": "webcolegio-bef0f",
  "private_key_id": "3686d1ae636a6e385751571f7ff9016c5aeee3aa",
  "private_key": "-----BEGIN PRIVATE KEY-----\nMIIEvQIBADANBgkqhkiG9w0BAQEFAASCBKcwggSjAgEAAoIBAQCwC609Ox7jXY8E\nLNawzsei6ENned84vqh9MUT5qIX9TOqJhhKdK4qcgi5cEdL/y9AYPQdEWsGNiDgG\negCpM1iod/PmobRUzajH28m2PN3PdyQiKey4GBqhTrt9WiqR0eORHC0IQTO9418K\n9IPawb4rknUTmcFw8ynTEb7tPcSeMnd/YcuDnqlQ1DXLl3DNk04i8wlB8MLH+vZE\nFggtGvh26JQDAL+b9vXFFdwNLTbST/RaZjzUCndUnAVqRLzvkQRL/j5Im0yHNn8W\n+ra4/XLraw4dXQVPRzUEVdemDDIFdayYp1nWRmi8k5w7fzJElIfBmV4g/bhKXa8U\n8Rlo19X3AgMBAAECggEARINO2SkklMUJD01qAmZ/QHHXJbLDAoEE7rAZkXYaK2Hf\nV0VEAkH7UHzDkRZowR9vbbd2mA4gDLZqY27gyfjPNMV2ORhOp8BgQuPRRWi7xG2w\nNNGPLHhJCOUsx5SrQ5PlVkiaZ/+EJQ8Top5VoHHNUoTNpqKsq4ofCWN7JDZpSk1h\nQjR88G498vRA64OSUVRS1N4c2LEWv7tTMxZZ2Jc1Kp7aTmhiQuLbKp/kaA8pImj2\n9WlGOUcn6kK3wLqyBmCTnHJ3v5EJwlpS/HdWK1ERt7ypMwRFTVej6OnQIoEWvv+h\nEWDdXiey2nf/9/2ElhXAoluCx8t7a7qJsw8wNK5ENQKBgQDgPwCWV1V00i91pfmX\n8FyWvO0CfoClZrXk8+BmgExa6eBDk4KS/KL7h3UpkEILsxsMm4+Wi9Lzp3cFMwpY\nNj5cjsHBrcHy4jeQNm3EF/UL3szKdddIXQSOYYr9xo31Jk/PO7AdN+wQ4WSl6PXX\nvUX0tZzy3yVTvCPfrBRYCTnmPQKBgQDI+WPkI8H2Ry/TQTqFrEqu+bv++gUj9gc3\nCdgghhvT8Dp8Mcc1C7eLZZHP3KQsqCf9J95tSUMMzanKd8WZiw0Rh4wb08lNfFhN\n/D6cvEVfTDBozgPKShmlpEaP79nseVku+CTu2e6isNVlrv974rnbtX2CVZcuDqpU\nzlpkOJAkQwKBgQDNpxnbxtY5X7VkuMVxIV9YYoUd/3PtvIdeJIaMmmbsDYa9kp9y\nO70g3jaF2qWnYyeQZW3GzA63o8JUg12eTojci5OIEtlG7U21tSTvbGUv8LFxj6bS\n13OhPDWizSBNTkhtLjkyYqHdTUfnnAEyTIPGi3QXjKwH4ggoTgEOR8/QpQKBgFlj\nOv+0u8drQCVJBNuBlzIeF3TABVtKSUk8kqlcnLH2Tj0A8uZwELHqeiEmtMq7/BVI\nD1EyXaUrMFLCVNwHEcfzLukNmKJjJO+CuuKBhqVtQLbMsrjdnmyjFVNdzeK00mrm\nqZ6mxdIMrs1sOWwDmsDTB0DaCsTMdwwDQAcFdW77AoGASMr+FTC1lla2bExwPXYk\nP0uIVjhQLGYajNQf4f55rhbk5NF+W8Ga7wbqB9XFZPBGtp34T1RYQWwfWS8qk3SD\no8F0bjxi/eC5UFrkfVnijYUgXszJmmO8NSDwpXLdBJHBzEyMKNx0ttydAAn19bvi\nv+Z88eZblM4VGc+so7aZIMw=\n-----END PRIVATE KEY-----\n",
  "client_email": "firebase-adminsdk-eqjtk@webcolegio-bef0f.iam.gserviceaccount.com",
  "client_id": "117966804120122817434",
  "auth_uri": "https://accounts.google.com/o/oauth2/auth",
  "token_uri": "https://oauth2.googleapis.com/token",
  "auth_provider_x509_cert_url": "https://www.googleapis.com/oauth2/v1/certs",
  "client_x509_cert_url": "https://www.googleapis.com/robot/v1/metadata/x509/firebase-adminsdk-eqjtk%40webcolegio-bef0f.iam.gserviceaccount.com"
}
